%YAML 1.1
%TAG !u! tag:unity3d.com,2011:
--- !u!1045 &1
EditorBuildSettings:
  m_ObjectHideFlags: 0
  serializedVersion: 2
  m_Scenes:
  - enabled: 1
    path: Assets/Scenes/MainMenu.unity
    guid: 507a128c77ff96a43a1a832ed72586c6
  - enabled: 1
    path: Assets/Scenes/Game.unity
    guid: 2cda990e2423bbf4892e6590ba056729
  - enabled: 1
    path: Assets/Scenes/Instructions.unity
    guid: c3df7a32a74d24f4ca90303e2ac3ef55
  - enabled: 1
    path: Assets/Scenes/Instructions 2.unity
    guid: da7a8c3045921a24d928545ddb5e1ebc
  - enabled: 1
    path: Assets/Scenes/Settings.unity
    guid: 12538056d2b9b35448a68d3f66e5afbc
  m_configObjects: {}
